%!PS-Adobe-3.0 EPSF-3.0
%%Creator: MATLAB, The Mathworks, Inc.
%%Title: /home/lib/projects/fm/evt/2006/waves/histo_pingtimes.eps
%%CreationDate: 06/15/2006  14:19:33
%%DocumentNeededFonts: Helvetica
%%DocumentProcessColors: Cyan Magenta Yellow Black
%%LanguageLevel: 2
%%Pages: 1
%%BoundingBox:    17    11   594   780
%%EndComments

%%BeginProlog
% MathWorks dictionary
/MathWorks 160 dict begin
% definition operators
/bdef {bind def} bind def
/ldef {load def} bind def
/xdef {exch def} bdef
/xstore {exch store} bdef
% operator abbreviations
/c  /clip ldef
/cc /concat ldef
/cp /closepath ldef
/gr /grestore ldef
/gs /gsave ldef
/mt /moveto ldef
/np /newpath ldef
/cm /currentmatrix ldef
/sm /setmatrix ldef
/rm /rmoveto ldef
/rl /rlineto ldef
/s {show newpath} bdef
/sc {setcmykcolor} bdef
/sr /setrgbcolor ldef
/sg /setgray ldef
/w /setlinewidth ldef
/j /setlinejoin ldef
/cap /setlinecap ldef
/rc {rectclip} bdef
/rf {rectfill} bdef
% page state control
/pgsv () def
/bpage {/pgsv save def} bdef
/epage {pgsv restore} bdef
/bplot /gsave ldef
/eplot {stroke grestore} bdef
% orientation switch
/portraitMode 0 def /landscapeMode 1 def /rotateMode 2 def
% coordinate system mappings
/dpi2point 0 def
% font control
/FontSize 0 def
/FMS {/FontSize xstore findfont [FontSize 0 0 FontSize neg 0 0]
  makefont setfont} bdef
/reencode {exch dup where {pop load} {pop StandardEncoding} ifelse
  exch dup 3 1 roll findfont dup length dict begin
  { 1 index /FID ne {def}{pop pop} ifelse } forall
  /Encoding exch def currentdict end definefont pop} bdef
/isroman {findfont /CharStrings get /Agrave known} bdef
/FMSR {3 1 roll 1 index dup isroman {reencode} {pop pop} ifelse
  exch FMS} bdef
/csm {1 dpi2point div -1 dpi2point div scale neg translate
 dup landscapeMode eq {pop -90 rotate}
  {rotateMode eq {90 rotate} if} ifelse} bdef
% line types: solid, dotted, dashed, dotdash
/SO { [] 0 setdash } bdef
/DO { [.5 dpi2point mul 4 dpi2point mul] 0 setdash } bdef
/DA { [6 dpi2point mul] 0 setdash } bdef
/DD { [.5 dpi2point mul 4 dpi2point mul 6 dpi2point mul 4
  dpi2point mul] 0 setdash } bdef
% macros for lines and objects
/L {lineto stroke} bdef
/MP {3 1 roll moveto 1 sub {rlineto} repeat} bdef
/AP {{rlineto} repeat} bdef
/PDlw -1 def
/W {/PDlw currentlinewidth def setlinewidth} def
/PP {closepath eofill} bdef
/DP {closepath stroke} bdef
/MR {4 -2 roll moveto dup  0 exch rlineto exch 0 rlineto
  neg 0 exch rlineto closepath} bdef
/FR {MR stroke} bdef
/PR {MR fill} bdef
/L1i {{currentfile picstr readhexstring pop} image} bdef
/tMatrix matrix def
/MakeOval {newpath tMatrix currentmatrix pop translate scale
0 0 1 0 360 arc tMatrix setmatrix} bdef
/FO {MakeOval stroke} bdef
/PO {MakeOval fill} bdef
/PD {currentlinewidth 2 div 0 360 arc fill
   PDlw -1 eq not {PDlw w /PDlw -1 def} if} def
/FA {newpath tMatrix currentmatrix pop translate scale
  0 0 1 5 -2 roll arc tMatrix setmatrix stroke} bdef
/PA {newpath tMatrix currentmatrix pop	translate 0 0 moveto scale
  0 0 1 5 -2 roll arc closepath tMatrix setmatrix fill} bdef
/FAn {newpath tMatrix currentmatrix pop translate scale
  0 0 1 5 -2 roll arcn tMatrix setmatrix stroke} bdef
/PAn {newpath tMatrix currentmatrix pop translate 0 0 moveto scale
  0 0 1 5 -2 roll arcn closepath tMatrix setmatrix fill} bdef
/vradius 0 def /hradius 0 def /lry 0 def
/lrx 0 def /uly 0 def /ulx 0 def /rad 0 def
/MRR {/vradius xdef /hradius xdef /lry xdef /lrx xdef /uly xdef
  /ulx xdef newpath tMatrix currentmatrix pop ulx hradius add uly
  vradius add translate hradius vradius scale 0 0 1 180 270 arc 
  tMatrix setmatrix lrx hradius sub uly vradius add translate
  hradius vradius scale 0 0 1 270 360 arc tMatrix setmatrix
  lrx hradius sub lry vradius sub translate hradius vradius scale
  0 0 1 0 90 arc tMatrix setmatrix ulx hradius add lry vradius sub
  translate hradius vradius scale 0 0 1 90 180 arc tMatrix setmatrix
  closepath} bdef
/FRR {MRR stroke } bdef
/PRR {MRR fill } bdef
/MlrRR {/lry xdef /lrx xdef /uly xdef /ulx xdef /rad lry uly sub 2 div def
  newpath tMatrix currentmatrix pop ulx rad add uly rad add translate
  rad rad scale 0 0 1 90 270 arc tMatrix setmatrix lrx rad sub lry rad
  sub translate rad rad scale 0 0 1 270 90 arc tMatrix setmatrix
  closepath} bdef
/FlrRR {MlrRR stroke } bdef
/PlrRR {MlrRR fill } bdef
/MtbRR {/lry xdef /lrx xdef /uly xdef /ulx xdef /rad lrx ulx sub 2 div def
  newpath tMatrix currentmatrix pop ulx rad add uly rad add translate
  rad rad scale 0 0 1 180 360 arc tMatrix setmatrix lrx rad sub lry rad
  sub translate rad rad scale 0 0 1 0 180 arc tMatrix setmatrix
  closepath} bdef
/FtbRR {MtbRR stroke } bdef
/PtbRR {MtbRR fill } bdef
/stri 6 array def /dtri 6 array def
/smat 6 array def /dmat 6 array def
/tmat1 6 array def /tmat2 6 array def /dif 3 array def
/asub {/ind2 exch def /ind1 exch def dup dup
  ind1 get exch ind2 get sub exch } bdef
/tri_to_matrix {
  2 0 asub 3 1 asub 4 0 asub 5 1 asub
  dup 0 get exch 1 get 7 -1 roll astore } bdef
/compute_transform {
  dmat dtri tri_to_matrix tmat1 invertmatrix 
  smat stri tri_to_matrix tmat2 concatmatrix } bdef
/ds {stri astore pop} bdef
/dt {dtri astore pop} bdef
/db {2 copy /cols xdef /rows xdef mul dup 3 mul string
  currentfile 
  3 index 0 eq {/ASCIIHexDecode filter}
  {/ASCII85Decode filter 3 index 2 eq {/RunLengthDecode filter} if }
  ifelse exch readstring pop
  dup 0 3 index getinterval /rbmap xdef
  dup 2 index dup getinterval /gbmap xdef
  1 index dup 2 mul exch getinterval /bbmap xdef pop pop}bdef
/it {gs np dtri aload pop moveto lineto lineto cp c
  cols rows 8 compute_transform 
  rbmap gbmap bbmap true 3 colorimage gr}bdef
/il {newpath moveto lineto stroke}bdef
currentdict end def
%%EndProlog

%%BeginSetup
MathWorks begin

0 cap

end
%%EndSetup

%%Page: 1 1
%%BeginPageSetup
%%PageBoundingBox:    17    11   594   780
MathWorks begin
bpage
%%EndPageSetup

%%BeginObject: obj1
bplot

/dpi2point 12 def
portraitMode 0204 9360 csm

    0     0  6929  9227 rc
85 dict begin %Colortable dictionary
/c0 { 0.000000 0.000000 0.000000 sr} bdef
/c1 { 1.000000 1.000000 1.000000 sr} bdef
/c2 { 0.900000 0.000000 0.000000 sr} bdef
/c3 { 0.000000 0.820000 0.000000 sr} bdef
/c4 { 0.000000 0.000000 0.800000 sr} bdef
/c5 { 0.910000 0.820000 0.320000 sr} bdef
/c6 { 1.000000 0.260000 0.820000 sr} bdef
/c7 { 0.000000 0.820000 0.820000 sr} bdef
c0
1 j
1 sg
   0    0 6930 9228 rf
6 w
0 1991 5371 0 0 -1991 900 2683 4 MP
PP
-5371 0 0 1991 5371 0 0 -1991 900 2683 5 MP stroke
4 w
DO
SO
6 w
0 sg
 900 2683 mt 6271 2683 L
 900  692 mt 6271  692 L
 900 2683 mt  900  692 L
6271 2683 mt 6271  692 L
 900 2683 mt 6271 2683 L
 900 2683 mt  900  692 L
 900 2683 mt  900 2629 L
 900  692 mt  900  745 L
%%IncludeResource: font Helvetica
/Helvetica /ISOLatin1Encoding 120 FMSR

 817 2828 mt 
(0.4) s
1668 2683 mt 1668 2629 L
1668  692 mt 1668  745 L
1585 2828 mt 
(0.6) s
2435 2683 mt 2435 2629 L
2435  692 mt 2435  745 L
2352 2828 mt 
(0.8) s
3202 2683 mt 3202 2629 L
3202  692 mt 3202  745 L
3169 2828 mt 
(1) s
3969 2683 mt 3969 2629 L
3969  692 mt 3969  745 L
3886 2828 mt 
(1.2) s
4736 2683 mt 4736 2629 L
4736  692 mt 4736  745 L
4653 2828 mt 
(1.4) s
5503 2683 mt 5503 2629 L
5503  692 mt 5503  745 L
5420 2828 mt 
(1.6) s
6271 2683 mt 6271 2629 L
6271  692 mt 6271  745 L
6188 2828 mt 
(1.8) s
5954 3030 mt 
(x 10) s
%%IncludeResource: font Helvetica
/Helvetica /ISOLatin1Encoding 80 FMSR

6180 2956 mt 
(-3) s
 900 2683 mt  954 2683 L
6271 2683 mt 6217 2683 L
%%IncludeResource: font Helvetica
/Helvetica /ISOLatin1Encoding 120 FMSR

 800 2727 mt 
(0) s
 900 2185 mt  954 2185 L
6271 2185 mt 6217 2185 L
 666 2229 mt 
(500) s
 900 1687 mt  954 1687 L
6271 1687 mt 6217 1687 L
 600 1731 mt 
(1000) s
 900 1189 mt  954 1189 L
6271 1189 mt 6217 1189 L
 600 1233 mt 
(1500) s
 900  692 mt  954  692 L
6271  692 mt 6217  692 L
 600  736 mt 
(2000) s
 900 2683 mt 6271 2683 L
 900  692 mt 6271  692 L
 900 2683 mt  900  692 L
6271 2683 mt 6271  692 L
gs 900 692 5372 1992 rc
0 2 19 0 0 -2 1228 2683 4 MP
PP
-19 0 0 2 19 0 0 -2 1228 2683 5 MP stroke
0 12 20 0 0 -12 1326 2683 4 MP
PP
-20 0 0 12 20 0 0 -12 1326 2683 5 MP stroke
0 9 20 0 0 -9 1425 2683 4 MP
PP
-20 0 0 9 20 0 0 -9 1425 2683 5 MP stroke
0 2 20 0 0 -2 1524 2683 4 MP
PP
-20 0 0 2 20 0 0 -2 1524 2683 5 MP stroke
0 3 20 0 0 -3 1623 2683 4 MP
PP
-20 0 0 3 20 0 0 -3 1623 2683 5 MP stroke
0 78 19 0 0 -78 1722 2683 4 MP
PP
-19 0 0 78 19 0 0 -78 1722 2683 5 MP stroke
0 725 20 0 0 -725 1820 2683 4 MP
PP
-20 0 0 725 20 0 0 -725 1820 2683 5 MP stroke
0 1902 20 0 0 -1902 1919 2683 4 MP
PP
-20 0 0 1902 20 0 0 -1902 1919 2683 5 MP stroke
0 699 20 0 0 -699 2018 2683 4 MP
PP
-20 0 0 699 20 0 0 -699 2018 2683 5 MP stroke
0 451 20 0 0 -451 2117 2683 4 MP
PP
-20 0 0 451 20 0 0 -451 2117 2683 5 MP stroke
0 178 19 0 0 -178 2216 2683 4 MP
PP
-19 0 0 178 19 0 0 -178 2216 2683 5 MP stroke
0 13 20 0 0 -13 2314 2683 4 MP
PP
-20 0 0 13 20 0 0 -13 2314 2683 5 MP stroke
0 1 20 0 0 -1 2413 2683 4 MP
PP
-20 0 0 1 20 0 0 -1 2413 2683 5 MP stroke
0 0 20 0 0 0 2512 2683 4 MP
PP
-20 0 0 0 20 0 0 0 2512 2683 5 MP stroke
0 1 19 0 0 -1 2611 2683 4 MP
PP
-19 0 0 1 19 0 0 -1 2611 2683 5 MP stroke
0 0 19 0 0 0 2710 2683 4 MP
PP
-19 0 0 0 19 0 0 0 2710 2683 5 MP stroke
0 0 20 0 0 0 2808 2683 4 MP
PP
-20 0 0 0 20 0 0 0 2808 2683 5 MP stroke
0 0 20 0 0 0 2907 2683 4 MP
PP
-20 0 0 0 20 0 0 0 2907 2683 5 MP stroke
0 0 20 0 0 0 3006 2683 4 MP
PP
-20 0 0 0 20 0 0 0 3006 2683 5 MP stroke
0 1 19 0 0 -1 3105 2683 4 MP
PP
-19 0 0 1 19 0 0 -1 3105 2683 5 MP stroke
0 0 20 0 0 0 3203 2683 4 MP
PP
-20 0 0 0 20 0 0 0 3203 2683 5 MP stroke
0 1 20 0 0 -1 3302 2683 4 MP
PP
-20 0 0 1 20 0 0 -1 3302 2683 5 MP stroke
0 2 20 0 0 -2 3401 2683 4 MP
PP
-20 0 0 2 20 0 0 -2 3401 2683 5 MP stroke
0 1 20 0 0 -1 3500 2683 4 MP
PP
-20 0 0 1 20 0 0 -1 3500 2683 5 MP stroke
0 2 19 0 0 -2 3599 2683 4 MP
PP
-19 0 0 2 19 0 0 -2 3599 2683 5 MP stroke
0 0 20 0 0 0 3697 2683 4 MP
PP
-20 0 0 0 20 0 0 0 3697 2683 5 MP stroke
0 2 20 0 0 -2 3796 2683 4 MP
PP
-20 0 0 2 20 0 0 -2 3796 2683 5 MP stroke
0 1 20 0 0 -1 3895 2683 4 MP
PP
-20 0 0 1 20 0 0 -1 3895 2683 5 MP stroke
0 0 20 0 0 0 3994 2683 4 MP
PP
-20 0 0 0 20 0 0 0 3994 2683 5 MP stroke
0 1 19 0 0 -1 4093 2683 4 MP
PP
-19 0 0 1 19 0 0 -1 4093 2683 5 MP stroke
0 1 20 0 0 -1 4191 2683 4 MP
PP
-20 0 0 1 20 0 0 -1 4191 2683 5 MP stroke
0 0 20 0 0 0 4290 2683 4 MP
PP
-20 0 0 0 20 0 0 0 4290 2683 5 MP stroke
0 0 20 0 0 0 4389 2683 4 MP
PP
-20 0 0 0 20 0 0 0 4389 2683 5 MP stroke
0 0 19 0 0 0 4488 2683 4 MP
PP
-19 0 0 0 19 0 0 0 4488 2683 5 MP stroke
0 0 19 0 0 0 4587 2683 4 MP
PP
-19 0 0 0 19 0 0 0 4587 2683 5 MP stroke
0 0 20 0 0 0 4685 2683 4 MP
PP
-20 0 0 0 20 0 0 0 4685 2683 5 MP stroke
0 0 20 0 0 0 4784 2683 4 MP
PP
-20 0 0 0 20 0 0 0 4784 2683 5 MP stroke
0 0 20 0 0 0 4883 2683 4 MP
PP
-20 0 0 0 20 0 0 0 4883 2683 5 MP stroke
0 0 19 0 0 0 4982 2683 4 MP
PP
-19 0 0 0 19 0 0 0 4982 2683 5 MP stroke
0 0 20 0 0 0 5080 2683 4 MP
PP
-20 0 0 0 20 0 0 0 5080 2683 5 MP stroke
0 0 20 0 0 0 5179 2683 4 MP
PP
-20 0 0 0 20 0 0 0 5179 2683 5 MP stroke
0 0 20 0 0 0 5278 2683 4 MP
PP
-20 0 0 0 20 0 0 0 5278 2683 5 MP stroke
0 0 20 0 0 0 5377 2683 4 MP
PP
-20 0 0 0 20 0 0 0 5377 2683 5 MP stroke
0 0 19 0 0 0 5476 2683 4 MP
PP
-19 0 0 0 19 0 0 0 5476 2683 5 MP stroke
0 0 20 0 0 0 5574 2683 4 MP
PP
-20 0 0 0 20 0 0 0 5574 2683 5 MP stroke
0 0 20 0 0 0 5673 2683 4 MP
PP
-20 0 0 0 20 0 0 0 5673 2683 5 MP stroke
0 0 20 0 0 0 5772 2683 4 MP
PP
-20 0 0 0 20 0 0 0 5772 2683 5 MP stroke
0 0 20 0 0 0 5871 2683 4 MP
PP
-20 0 0 0 20 0 0 0 5871 2683 5 MP stroke
0 0 19 0 0 0 5970 2683 4 MP
PP
-19 0 0 0 19 0 0 0 5970 2683 5 MP stroke
0 0 20 0 0 0 6068 2683 4 MP
PP
-20 0 0 0 20 0 0 0 6068 2683 5 MP stroke
5371 0 900 2683 2 MP stroke
gr

2786  597 mt 
(Ping localhost 20060227 4138) s
3472 2971 mt 
(time) s
 518 1949 mt  -90 rotate
(frequency) s
90 rotate
1 sg
0 1990 5371 0 0 -1990 900 5447 4 MP
PP
-5371 0 0 1990 5371 0 0 -1990 900 5447 5 MP stroke
4 w
DO
SO
6 w
0 sg
 900 5447 mt 6271 5447 L
 900 3457 mt 6271 3457 L
 900 5447 mt  900 3457 L
6271 5447 mt 6271 3457 L
 900 5447 mt 6271 5447 L
 900 5447 mt  900 3457 L
 900 5447 mt  900 5393 L
 900 3457 mt  900 3510 L
 817 5592 mt 
(0.4) s
1668 5447 mt 1668 5393 L
1668 3457 mt 1668 3510 L
1585 5592 mt 
(0.6) s
2435 5447 mt 2435 5393 L
2435 3457 mt 2435 3510 L
2352 5592 mt 
(0.8) s
3202 5447 mt 3202 5393 L
3202 3457 mt 3202 3510 L
3169 5592 mt 
(1) s
3969 5447 mt 3969 5393 L
3969 3457 mt 3969 3510 L
3886 5592 mt 
(1.2) s
4736 5447 mt 4736 5393 L
4736 3457 mt 4736 3510 L
4653 5592 mt 
(1.4) s
5503 5447 mt 5503 5393 L
5503 3457 mt 5503 3510 L
5420 5592 mt 
(1.6) s
6271 5447 mt 6271 5393 L
6271 3457 mt 6271 3510 L
6188 5592 mt 
(1.8) s
5954 5794 mt 
(x 10) s
%%IncludeResource: font Helvetica
/Helvetica /ISOLatin1Encoding 80 FMSR

6180 5720 mt 
(-3) s
 900 5447 mt  954 5447 L
6271 5447 mt 6217 5447 L
%%IncludeResource: font Helvetica
/Helvetica /ISOLatin1Encoding 120 FMSR

 800 5491 mt 
(0) s
 900 5162 mt  954 5162 L
6271 5162 mt 6217 5162 L
 666 5206 mt 
(200) s
 900 4878 mt  954 4878 L
6271 4878 mt 6217 4878 L
 666 4922 mt 
(400) s
 900 4594 mt  954 4594 L
6271 4594 mt 6217 4594 L
 666 4638 mt 
(600) s
 900 4309 mt  954 4309 L
6271 4309 mt 6217 4309 L
 666 4353 mt 
(800) s
 900 4025 mt  954 4025 L
6271 4025 mt 6217 4025 L
 600 4069 mt 
(1000) s
 900 3741 mt  954 3741 L
6271 3741 mt 6217 3741 L
 600 3785 mt 
(1200) s
 900 3457 mt  954 3457 L
6271 3457 mt 6217 3457 L
 600 3501 mt 
(1400) s
 900 5447 mt 6271 5447 L
 900 3457 mt 6271 3457 L
 900 5447 mt  900 3457 L
6271 5447 mt 6271 3457 L
gs 900 3457 5372 1991 rc
0 8 20 0 0 -8 1297 5447 4 MP
PP
-20 0 0 8 20 0 0 -8 1297 5447 5 MP stroke
0 42 20 0 0 -42 1397 5447 4 MP
PP
-20 0 0 42 20 0 0 -42 1397 5447 5 MP stroke
0 10 20 0 0 -10 1497 5447 4 MP
PP
-20 0 0 10 20 0 0 -10 1497 5447 5 MP stroke
0 30 20 0 0 -30 1596 5447 4 MP
PP
-20 0 0 30 20 0 0 -30 1596 5447 5 MP stroke
0 148 20 0 0 -148 1696 5447 4 MP
PP
-20 0 0 148 20 0 0 -148 1696 5447 5 MP stroke
0 472 20 0 0 -472 1796 5447 4 MP
PP
-20 0 0 472 20 0 0 -472 1796 5447 5 MP stroke
0 1736 20 0 0 -1736 1896 5447 4 MP
PP
-20 0 0 1736 20 0 0 -1736 1896 5447 5 MP stroke
0 1047 20 0 0 -1047 1996 5447 4 MP
PP
-20 0 0 1047 20 0 0 -1047 1996 5447 5 MP stroke
0 379 20 0 0 -379 2095 5447 4 MP
PP
-20 0 0 379 20 0 0 -379 2095 5447 5 MP stroke
0 143 20 0 0 -143 2195 5447 4 MP
PP
-20 0 0 143 20 0 0 -143 2195 5447 5 MP stroke
0 9 20 0 0 -9 2295 5447 4 MP
PP
-20 0 0 9 20 0 0 -9 2295 5447 5 MP stroke
0 2 20 0 0 -2 2395 5447 4 MP
PP
-20 0 0 2 20 0 0 -2 2395 5447 5 MP stroke
0 0 20 0 0 0 2495 5447 4 MP
PP
-20 0 0 0 20 0 0 0 2495 5447 5 MP stroke
0 0 20 0 0 0 2594 5447 4 MP
PP
-20 0 0 0 20 0 0 0 2594 5447 5 MP stroke
0 0 20 0 0 0 2694 5447 4 MP
PP
-20 0 0 0 20 0 0 0 2694 5447 5 MP stroke
0 2 20 0 0 -2 2794 5447 4 MP
PP
-20 0 0 2 20 0 0 -2 2794 5447 5 MP stroke
0 0 20 0 0 0 2894 5447 4 MP
PP
-20 0 0 0 20 0 0 0 2894 5447 5 MP stroke
0 0 20 0 0 0 2993 5447 4 MP
PP
-20 0 0 0 20 0 0 0 2993 5447 5 MP stroke
0 2 20 0 0 -2 3093 5447 4 MP
PP
-20 0 0 2 20 0 0 -2 3093 5447 5 MP stroke
0 2 20 0 0 -2 3193 5447 4 MP
PP
-20 0 0 2 20 0 0 -2 3193 5447 5 MP stroke
0 0 20 0 0 0 3293 5447 4 MP
PP
-20 0 0 0 20 0 0 0 3293 5447 5 MP stroke
0 2 20 0 0 -2 3393 5447 4 MP
PP
-20 0 0 2 20 0 0 -2 3393 5447 5 MP stroke
0 3 20 0 0 -3 3492 5447 4 MP
PP
-20 0 0 3 20 0 0 -3 3492 5447 5 MP stroke
0 3 20 0 0 -3 3592 5447 4 MP
PP
-20 0 0 3 20 0 0 -3 3592 5447 5 MP stroke
0 0 20 0 0 0 3692 5447 4 MP
PP
-20 0 0 0 20 0 0 0 3692 5447 5 MP stroke
0 0 20 0 0 0 3792 5447 4 MP
PP
-20 0 0 0 20 0 0 0 3792 5447 5 MP stroke
0 0 20 0 0 0 3892 5447 4 MP
PP
-20 0 0 0 20 0 0 0 3892 5447 5 MP stroke
0 0 20 0 0 0 3991 5447 4 MP
PP
-20 0 0 0 20 0 0 0 3991 5447 5 MP stroke
0 0 20 0 0 0 4091 5447 4 MP
PP
-20 0 0 0 20 0 0 0 4091 5447 5 MP stroke
0 2 20 0 0 -2 4191 5447 4 MP
PP
-20 0 0 2 20 0 0 -2 4191 5447 5 MP stroke
0 0 20 0 0 0 4291 5447 4 MP
PP
-20 0 0 0 20 0 0 0 4291 5447 5 MP stroke
0 0 19 0 0 0 4391 5447 4 MP
PP
-19 0 0 0 19 0 0 0 4391 5447 5 MP stroke
0 0 20 0 0 0 4490 5447 4 MP
PP
-20 0 0 0 20 0 0 0 4490 5447 5 MP stroke
0 0 20 0 0 0 4590 5447 4 MP
PP
-20 0 0 0 20 0 0 0 4590 5447 5 MP stroke
0 0 20 0 0 0 4690 5447 4 MP
PP
-20 0 0 0 20 0 0 0 4690 5447 5 MP stroke
0 0 20 0 0 0 4790 5447 4 MP
PP
-20 0 0 0 20 0 0 0 4790 5447 5 MP stroke
0 0 20 0 0 0 4889 5447 4 MP
PP
-20 0 0 0 20 0 0 0 4889 5447 5 MP stroke
0 0 20 0 0 0 4989 5447 4 MP
PP
-20 0 0 0 20 0 0 0 4989 5447 5 MP stroke
0 0 20 0 0 0 5089 5447 4 MP
PP
-20 0 0 0 20 0 0 0 5089 5447 5 MP stroke
0 0 20 0 0 0 5189 5447 4 MP
PP
-20 0 0 0 20 0 0 0 5189 5447 5 MP stroke
0 2 20 0 0 -2 5289 5447 4 MP
PP
-20 0 0 2 20 0 0 -2 5289 5447 5 MP stroke
0 0 20 0 0 0 5388 5447 4 MP
PP
-20 0 0 0 20 0 0 0 5388 5447 5 MP stroke
0 0 20 0 0 0 5488 5447 4 MP
PP
-20 0 0 0 20 0 0 0 5488 5447 5 MP stroke
0 0 20 0 0 0 5588 5447 4 MP
PP
-20 0 0 0 20 0 0 0 5588 5447 5 MP stroke
0 0 20 0 0 0 5688 5447 4 MP
PP
-20 0 0 0 20 0 0 0 5688 5447 5 MP stroke
0 0 19 0 0 0 5788 5447 4 MP
PP
-19 0 0 0 19 0 0 0 5788 5447 5 MP stroke
0 0 20 0 0 0 5887 5447 4 MP
PP
-20 0 0 0 20 0 0 0 5887 5447 5 MP stroke
0 0 20 0 0 0 5987 5447 4 MP
PP
-20 0 0 0 20 0 0 0 5987 5447 5 MP stroke
0 0 20 0 0 0 6087 5447 4 MP
PP
-20 0 0 0 20 0 0 0 6087 5447 5 MP stroke
0 0 20 0 0 0 6187 5447 4 MP
PP
-20 0 0 0 20 0 0 0 6187 5447 5 MP stroke
5371 0 900 5447 2 MP stroke
gr

2786 3362 mt 
(Ping localhost 20060603 2850) s
3472 5735 mt 
(time) s
 518 4714 mt  -90 rotate
(frequency) s
90 rotate
1 sg
0 1991 5370 0 0 -1991 901 8212 4 MP
PP
-5370 0 0 1991 5370 0 0 -1991 901 8212 5 MP stroke
4 w
DO
SO
6 w
0 sg
 901 8212 mt 6271 8212 L
 901 6221 mt 6271 6221 L
 901 8212 mt  901 6221 L
6271 8212 mt 6271 6221 L
 901 8212 mt 6271 8212 L
 901 8212 mt  901 6221 L
 901 8212 mt  901 8158 L
 901 6221 mt  901 6274 L
 868 8357 mt 
(5) s
1796 8212 mt 1796 8158 L
1796 6221 mt 1796 6274 L
1763 8357 mt 
(6) s
2690 8212 mt 2690 8158 L
2690 6221 mt 2690 6274 L
2657 8357 mt 
(7) s
3586 8212 mt 3586 8158 L
3586 6221 mt 3586 6274 L
3553 8357 mt 
(8) s
4480 8212 mt 4480 8158 L
4480 6221 mt 4480 6274 L
4447 8357 mt 
(9) s
5376 8212 mt 5376 8158 L
5376 6221 mt 5376 6274 L
5310 8357 mt 
(10) s
6271 8212 mt 6271 8158 L
6271 6221 mt 6271 6274 L
6205 8357 mt 
(11) s
5954 8559 mt 
(x 10) s
%%IncludeResource: font Helvetica
/Helvetica /ISOLatin1Encoding 80 FMSR

6180 8485 mt 
(-4) s
 901 8212 mt  954 8212 L
6271 8212 mt 6217 8212 L
%%IncludeResource: font Helvetica
/Helvetica /ISOLatin1Encoding 120 FMSR

 800 8256 mt 
(0) s
 901 7927 mt  954 7927 L
6271 7927 mt 6217 7927 L
 733 7971 mt 
(50) s
 901 7643 mt  954 7643 L
6271 7643 mt 6217 7643 L
 666 7687 mt 
(100) s
 901 7358 mt  954 7358 L
6271 7358 mt 6217 7358 L
 666 7402 mt 
(150) s
 901 7074 mt  954 7074 L
6271 7074 mt 6217 7074 L
 666 7118 mt 
(200) s
 901 6789 mt  954 6789 L
6271 6789 mt 6217 6789 L
 666 6833 mt 
(250) s
 901 6505 mt  954 6505 L
6271 6505 mt 6217 6505 L
 666 6549 mt 
(300) s
 901 6221 mt  954 6221 L
6271 6221 mt 6217 6221 L
 666 6265 mt 
(350) s
 901 8212 mt 6271 8212 L
 901 6221 mt 6271 6221 L
 901 8212 mt  901 6221 L
6271 8212 mt 6271 6221 L
gs 901 6221 5371 1992 rc
0 6 17 0 0 -6 1005 8212 4 MP
PP
-17 0 0 6 17 0 0 -6 1005 8212 5 MP stroke
0 12 16 0 0 -12 1088 8212 4 MP
PP
-16 0 0 12 16 0 0 -12 1088 8212 5 MP stroke
0 35 16 0 0 -35 1171 8212 4 MP
PP
-16 0 0 35 16 0 0 -35 1171 8212 5 MP stroke
0 35 17 0 0 -35 1253 8212 4 MP
PP
-17 0 0 35 17 0 0 -35 1253 8212 5 MP stroke
0 12 17 0 0 -12 1336 8212 4 MP
PP
-17 0 0 12 17 0 0 -12 1336 8212 5 MP stroke
0 18 16 0 0 -18 1419 8212 4 MP
PP
-16 0 0 18 16 0 0 -18 1419 8212 5 MP stroke
0 52 16 0 0 -52 1502 8212 4 MP
PP
-16 0 0 52 16 0 0 -52 1502 8212 5 MP stroke
0 46 17 0 0 -46 1584 8212 4 MP
PP
-17 0 0 46 17 0 0 -46 1584 8212 5 MP stroke
0 18 16 0 0 -18 1667 8212 4 MP
PP
-16 0 0 18 16 0 0 -18 1667 8212 5 MP stroke
0 63 16 0 0 -63 1750 8212 4 MP
PP
-16 0 0 63 16 0 0 -63 1750 8212 5 MP stroke
0 40 17 0 0 -40 1832 8212 4 MP
PP
-17 0 0 40 17 0 0 -40 1832 8212 5 MP stroke
0 154 17 0 0 -154 1915 8212 4 MP
PP
-17 0 0 154 17 0 0 -154 1915 8212 5 MP stroke
0 308 16 0 0 -308 1998 8212 4 MP
PP
-16 0 0 308 16 0 0 -308 1998 8212 5 MP stroke
0 154 16 0 0 -154 2081 8212 4 MP
PP
-16 0 0 154 16 0 0 -154 2081 8212 5 MP stroke
0 302 17 0 0 -302 2163 8212 4 MP
PP
-17 0 0 302 17 0 0 -302 2163 8212 5 MP stroke
0 877 17 0 0 -877 2246 8212 4 MP
PP
-17 0 0 877 17 0 0 -877 2246 8212 5 MP stroke
0 1758 16 0 0 -1758 2329 8212 4 MP
PP
-16 0 0 1758 16 0 0 -1758 2329 8212 5 MP stroke
0 1764 17 0 0 -1764 2411 8212 4 MP
PP
-17 0 0 1764 17 0 0 -1764 2411 8212 5 MP stroke
0 1576 17 0 0 -1576 2494 8212 4 MP
PP
-17 0 0 1576 17 0 0 -1576 2494 8212 5 MP stroke
0 734 16 0 0 -734 2577 8212 4 MP
PP
-16 0 0 734 16 0 0 -734 2577 8212 5 MP stroke
0 382 16 0 0 -382 2660 8212 4 MP
PP
-16 0 0 382 16 0 0 -382 2660 8212 5 MP stroke
0 268 17 0 0 -268 2742 8212 4 MP
PP
-17 0 0 268 17 0 0 -268 2742 8212 5 MP stroke
0 291 17 0 0 -291 2825 8212 4 MP
PP
-17 0 0 291 17 0 0 -291 2825 8212 5 MP stroke
0 188 16 0 0 -188 2908 8212 4 MP
PP
-16 0 0 188 16 0 0 -188 2908 8212 5 MP stroke
0 217 17 0 0 -217 2990 8212 4 MP
PP
-17 0 0 217 17 0 0 -217 2990 8212 5 MP stroke
0 57 17 0 0 -57 3073 8212 4 MP
PP
-17 0 0 57 17 0 0 -57 3073 8212 5 MP stroke
0 23 16 0 0 -23 3156 8212 4 MP
PP
-16 0 0 23 16 0 0 -23 3156 8212 5 MP stroke
0 0 16 0 0 0 3239 8212 4 MP
PP
-16 0 0 0 16 0 0 0 3239 8212 5 MP stroke
0 6 17 0 0 -6 3321 8212 4 MP
PP
-17 0 0 6 17 0 0 -6 3321 8212 5 MP stroke
0 0 17 0 0 0 3404 8212 4 MP
PP
-17 0 0 0 17 0 0 0 3404 8212 5 MP stroke
0 0 16 0 0 0 3487 8212 4 MP
PP
-16 0 0 0 16 0 0 0 3487 8212 5 MP stroke
0 0 16 0 0 0 3570 8212 4 MP
PP
-16 0 0 0 16 0 0 0 3570 8212 5 MP stroke
0 12 17 0 0 -12 3652 8212 4 MP
PP
-17 0 0 12 17 0 0 -12 3652 8212 5 MP stroke
0 0 17 0 0 0 3735 8212 4 MP
PP
-17 0 0 0 17 0 0 0 3735 8212 5 MP stroke
0 0 16 0 0 0 3818 8212 4 MP
PP
-16 0 0 0 16 0 0 0 3818 8212 5 MP stroke
0 0 17 0 0 0 3900 8212 4 MP
PP
-17 0 0 0 17 0 0 0 3900 8212 5 MP stroke
0 0 17 0 0 0 3983 8212 4 MP
PP
-17 0 0 0 17 0 0 0 3983 8212 5 MP stroke
0 0 16 0 0 0 4066 8212 4 MP
PP
-16 0 0 0 16 0 0 0 4066 8212 5 MP stroke
0 0 16 0 0 0 4149 8212 4 MP
PP
-16 0 0 0 16 0 0 0 4149 8212 5 MP stroke
0 0 17 0 0 0 4231 8212 4 MP
PP
-17 0 0 0 17 0 0 0 4231 8212 5 MP stroke
0 0 17 0 0 0 4314 8212 4 MP
PP
-17 0 0 0 17 0 0 0 4314 8212 5 MP stroke
0 0 16 0 0 0 4397 8212 4 MP
PP
-16 0 0 0 16 0 0 0 4397 8212 5 MP stroke
0 0 17 0 0 0 4479 8212 4 MP
PP
-17 0 0 0 17 0 0 0 4479 8212 5 MP stroke
0 0 17 0 0 0 4562 8212 4 MP
PP
-17 0 0 0 17 0 0 0 4562 8212 5 MP stroke
0 0 16 0 0 0 4645 8212 4 MP
PP
-16 0 0 0 16 0 0 0 4645 8212 5 MP stroke
0 0 16 0 0 0 4728 8212 4 MP
PP
-16 0 0 0 16 0 0 0 4728 8212 5 MP stroke
0 0 17 0 0 0 4810 8212 4 MP
PP
-17 0 0 0 17 0 0 0 4810 8212 5 MP stroke
0 0 17 0 0 0 4893 8212 4 MP
PP
-17 0 0 0 17 0 0 0 4893 8212 5 MP stroke
0 0 16 0 0 0 4976 8212 4 MP
PP
-16 0 0 0 16 0 0 0 4976 8212 5 MP stroke
0 0 17 0 0 0 5058 8212 4 MP
PP
-17 0 0 0 17 0 0 0 5058 8212 5 MP stroke
5370 0 901 8212 2 MP stroke
gr

2786 6126 mt 
(Ping localhost 20060604 1663) s
3473 8500 mt 
(time) s
 584 7478 mt  -90 rotate
(frequency) s
90 rotate

end %%Color Dict

eplot
%%EndObject

epage
end

showpage

%%Trailer
%%EOF
